^C:\GIT\SFML_PROJECT\RELEASE\CMAKEFILES\3.21.3\COMPILERIDCXX\CMAKECXXCOMPILERID.CPP
C:\WINDOWS\GLOBALIZATION\SORTING\SORTDEFAULT.NLS
C:\PROGRAM FILES (X86)\MICROSOFT VISUAL STUDIO\2019\COMMUNITY\VC\TOOLS\MSVC\14.29.30133\BIN\HOSTX64\X64\1049\CLUI.DLL
C:\WINDOWS\SYSTEM32\TZRES.DLL
